Re-routing Harbor Seal Movement Tracks Around Land with {pathroutr} • pathroutr
…
Determine Segments of Track On Land

In this example, our interest is to re-route only the portions of the
track that cross land. So, we need to identify the segments of
consecutive points on land and, also, the points in water that bookend
each segment. We will use this information to calculate our shortest
path through our network and create an updated series of point
features.

track_pts <- harborSeal_sf %>% dplyr::filter(!sf::st_is_empty(.))
segs_tbl <- get_barrier_segments(track_pts,land_region)
segs_tbl
#> # A tibble: 44 × 6
#>      sid start_idx end_idx n_pts             start_pt
#>    <int>     <dbl>   <dbl> <dbl>          <POINT [m]>
#>  1     1        70      72     1  (-7141.435 1009874)
#>  2     2       211     213     1   (17825.82 1009686)
#>  3     3       296     298     1 (-166514.5 678462.8)
#>  4     4       299     301     1 (-166385.8 678569.6)
#>  5     5       310     312     1   (-159772 672617.8)
#>  6     6       313     315     1 (-168417.8 679098.1)
#>  7     7       346     348     1 (-166934.5 680376.9)
#>  8     8       372     375     2   (-167836 679632.4)
#>  9     9       390     392     1   (-164953 673937.4)
#> 10    10       398     400     1   (-163341.9 680010)
#> # ℹ 34 more rows
#> # ℹ 1 more variable: end_pt <POINT [m]>
…
pred1 = crwPredict(fit1, predTime = '15 min')
pred1_sf <- pred1 %>% crw_as_sf("POINT","p")

Identify Predicted Locations on Land

As before, we need to identify all of the segments of consecutive
locations on land and determine the associated start and end nodes
within our network.

segs_tbl <- get_barrier_segments(pred1_sf,land_region)
segs_tbl
#> # A tibble: 140 × 6
#>      sid start_idx end_idx n_pts             start_pt
#>    <int>     <dbl>   <dbl> <dbl>          <POINT [m]>
#>  1     1      2426    2435     8   (16195.24 1008923)
#>  2     2      2482    2485     2   (13845.85 1009221)
#>  3     3      2486    2488     1   (14334.24 1007460)
#>  4     4      2488    2557    68   (14625.18 1006411)
#>  5     5      2648    2651     2    (47203.07 912631)
#>  6     6      2656    2662     5  (44653.54 904336.9)
#>  7     7      3260    3263     2 (-169713.6 678313.5)
#>  8     8      3524    3531     6   (-166814 672859.7)
#>  9     9      3545    3564    18 (-166337.5 678529.5)
#> 10    10      3610    3616     5 (-166162.5 678383.6)
#> # ℹ 130 more rows
#> # ℹ 1 more variable: end_pt <POINT [m]>
…
