Re-routing Straight Line Paths Around Barriers - A Visibility Graph Demo • pathroutr
…
Re-route the path

The first function we’ll use fromm the {pathroutr} package is get_barrier_segments() which identifies all of the consecutive track points that intersect with the land barrier. The result of this function is a tibble that stores the key metadata about each of the segments identified to cross land. The start_idx and end_idx columns store the row index of the two points that bookend each stretch of consecutive points that intersect with the barrier polygon. These points DO NOT intersect with the barrier. The n_pts column is the number of consecutive points that intersect with the barrier. Lastly, the start_pt and end_pt columns store the Simple Feature geometry for the bookend points represented by start_idx and end_idx. Later, these geometries will be used to identify the nearest node in our network for shortest path routing and the final, updated path will start and end with these geometries.

segs_tbl <- get_barrier_segments(track_pts,land_barrier)
segs_tbl
#> # A tibble: 42 × 6
#>      sid start_idx end_idx n_pts            start_pt
#>    <int>     <dbl>   <dbl> <dbl>         <POINT [m]>
#>  1     1        39     301   261  (88566.9 948456.6)
#>  2     2       493     513    19 (78725.22 951569.5)
#>  3     3       813     857    43  (74296.6 946360.5)
#>  4     4      1194    1237    42 (73192.54 945579.3)
#>  5     5      1546    1574    27 (76943.75 952648.9)
#>  6     6      1982    2029    46  (79349.2 955256.3)
#>  7     7      2050    2157   106 (79025.26 953744.6)
#>  8     8      2409    2426    16 (80684.32 951636.5)
#>  9     9      2434    2451    16    (81104 952019.8)
#> 10    10      2491    2637   145 (82060.87 952893.8)
#> # … with 32 more rows, and 1 more variable: end_pt <POINT [m]>
…
